<?xml version="1.0" encoding="utf-8"?>
<!-- Generator: Adobe Illustrator 22.1.0, SVG Export Plug-In . SVG Version: 6.00 Build 0)  -->
<svg version="1.1" id="Layer_1" xmlns="http://www.w3.org/2000/svg" xmlns:xlink="http://www.w3.org/1999/xlink" x="0px" y="0px"
	 viewBox="0 0 511 225" style="enable-background:new 0 0 511 225;" xml:space="preserve">
<style type="text/css">
	.st0{fill:url(#Gradient_BG_1_);}
	.st1{fill:#FFFFFF;}
</style>
<g id="BEST_PRICE_ICON">
	
		<linearGradient id="Gradient_BG_1_" gradientUnits="userSpaceOnUse" x1="67.2881" y1="273.7361" x2="449.2205" y2="-46.7432" gradientTransform="matrix(1 0 0 -1 0 226)">
		<stop  offset="0" style="stop-color:#EB8A92"/>
		<stop  offset="0.2764" style="stop-color:#EC6874"/>
		<stop  offset="0.7638" style="stop-color:#ED3142"/>
		<stop  offset="1" style="stop-color:#ED1B2F"/>
	</linearGradient>
	<path id="Gradient_BG" class="st0" d="M470.1,225H46.4c-22.7,0-41.1-18.4-41.1-41.1V41.1C5.3,18.4,23.7,0,46.4,0h423.7
		c22.7,0,41.1,18.4,41.1,41.1V184C511.2,206.6,492.8,225,470.1,225z"/>
	<g id="ICON">
		<g>
			<g>
				<path class="st1" d="M171.6,70.5h14.2c8.1,0,12.4,3.8,12.4,9.5c0,4.6-2.8,7.4-5.9,8.2v0.1c4,0.9,7,3.7,7,8.5
					c0,6.8-5.1,10.8-13.2,10.8h-14.5V70.5z M184.7,85.7c3.7,0,5.3-1.7,5.3-4.5c0-2.6-1.6-4.2-5.2-4.2h-5v8.8h4.9V85.7z M184.9,101.3
					c3.6,0,5.6-1.7,5.6-5s-1.9-5.1-5.6-5.1h-5.1v10L184.9,101.3L184.9,101.3z"/>
				<path class="st1" d="M207.4,70.5h22.7v6.8h-14.5v8H228v6.2h-12.4v9.5h14.5v6.7h-22.7V70.5z"/>
				<path class="st1" d="M236.6,106.1V99c2.7,1.3,6.2,2.5,9.7,2.5c4.1,0,6.2-1.4,6.2-4.2c0-3.2-2.8-3.6-8.4-6
					c-3.8-1.7-7.5-4.4-7.5-10.6c0-7.2,5.4-10.6,13-10.6c4,0,7.4,1,9.3,1.7v6.9c-1.9-0.9-5.3-2-8.7-2c-3.7,0-5.4,1.4-5.4,3.8
					c0,2.5,2.1,3.3,5.9,4.7c4.8,2.4,10.5,3.5,10.5,11.9c0,7.2-5.7,11.2-13.3,11.2C243.2,108.2,239.5,107.3,236.6,106.1z"/>
				<path class="st1" d="M274.9,77.2H265v-6.8h28.3v6.8h-10.2v30.5h-8.2L274.9,77.2L274.9,77.2z"/>
				<path class="st1" d="M315.1,70.5H329c7.9,0,12.7,5,12.7,12.2c0,6.9-4.8,12-13,12h-5.5v13H315V70.5H315.1z M327.7,88.6
					c3.9,0,5.7-2.3,5.7-5.9c0-3.5-1.8-5.8-5.7-5.8h-4.4v11.7C323.3,88.6,327.7,88.6,327.7,88.6z"/>
				<path class="st1" d="M367.6,103.1L361,92.8h-3.8v14.9H349V70.5h14.5c7.6,0,12.2,4.3,12.2,11.2c0,3.7-1.9,7.7-6.9,9.6l5.9,8.6
					c1,1.5,2.1,1.9,3.3,1.9c0.4,0,0.7,0,1.1-0.1v6.1c-0.8,0.2-1.8,0.4-2.7,0.4C372.8,108.2,370.3,107.2,367.6,103.1z M362,87.2
					c3.7,0,5.4-2.2,5.4-5.1c0-3.2-1.7-5.1-5.4-5.1h-4.8v10.3h4.8V87.2z"/>
				<path class="st1" d="M385.7,70.5h8.2v37.2h-8.2V70.5z"/>
				<path class="st1" d="M401.9,89.5c0-10.7,5.7-19.5,17.9-19.5c4.5,0,7.3,0.9,9.2,1.7v7.1c-1.8-1.1-4.6-1.9-8.3-1.9
					c-6.6,0-10.2,4.4-10.2,12.7c0,7.6,3.9,11.8,10.4,11.8c3.7,0,6.3-0.9,8.5-2.2v7.3c-2.4,1.1-5,1.8-9.5,1.8
					C408,108.2,401.9,100.2,401.9,89.5z"/>
				<path class="st1" d="M437.5,70.5h22.7v6.8h-14.5v8H458v6.2h-12.4v9.5h14.5v6.7h-22.7V70.5H437.5z"/>
			</g>
			<g>
				<path class="st1" d="M170.1,136.3c0-9.6,5.2-18,17.6-18c4.5,0,7.4,0.8,9.6,1.8v6.4c-2.7-1.3-5.6-2-9.3-2c-6.7,0-10,4.2-10,11.8
					c0,7.4,3.5,11.1,9.8,11.1c1.7,0,2.8-0.2,4-0.6V140h-5.3v-5.7h12.6v17.1c-3,1-6.5,2-11.6,2C176.2,153.5,170.1,146.5,170.1,136.3z
					"/>
				<path class="st1" d="M204.3,140.4v-21.6h7.5v21.3c0,4.5,2.1,7.2,6.7,7.2c4.6,0,6.7-2.8,6.7-7.2v-21.3h7.1v21.6
					c0,9.2-5.4,13.1-13.8,13.1C210.2,153.5,204.3,149.6,204.3,140.4z"/>
				<path class="st1" d="M249.1,118.8h8.4l12.6,34.3h-8.2l-2.2-6.8h-13.4l-2.3,6.8h-7.8L249.1,118.8z M257.7,140.2l-2.9-8.8
					c-0.7-2-1.3-4-1.7-5.6H253c-0.4,1.5-1.1,3.6-1.8,5.6l-3,8.8H257.7z"/>
				<path class="st1" d="M292.1,148.8l-6.1-9.5h-3.5V153H275v-34.3h13.4c7.1,0,11.2,4,11.2,10.4c0,3.4-1.8,7.1-6.3,8.9l5.4,7.9
					c0.9,1.4,1.9,1.7,3,1.7c0.3,0,0.7,0,1-0.1v5.6c-0.8,0.2-1.7,0.3-2.5,0.3C296.9,153.5,294.6,152.6,292.1,148.8z M287,134.2
					c3.4,0,5-2,5-4.7c0-2.9-1.5-4.7-5-4.7h-4.4v9.5h4.4V134.2z"/>
				<path class="st1" d="M319.9,118.8h8.4l12.6,34.3h-8.2l-2.2-6.8h-13.4l-2.3,6.8H307L319.9,118.8z M328.5,140.2l-2.9-8.8
					c-0.7-2-1.3-4-1.7-5.6h-0.1c-0.4,1.5-1.1,3.6-1.8,5.6l-3,8.8H328.5z"/>
				<path class="st1" d="M345.9,118.8h8l11.6,18.6c1,1.7,2.3,4,3,5.6h0.2c-0.1-1.5-0.2-3.7-0.2-5.2v-18.9h6.7v34.3H367l-11.6-18.6
					c-1-1.7-2.1-3.7-2.9-5.3h-0.1c0.1,1.5,0.2,3.3,0.2,4.9v18.9h-6.7V118.8z"/>
				<path class="st1" d="M389.5,125h-9.1v-6.2h26.1v6.2h-9.4v28.1h-7.5V125H389.5z"/>
				<path class="st1" d="M411.7,118.8h20.9v6.2h-13.4v7.4h11.4v5.7h-11.4v8.8h13.4v6.2h-20.9V118.8z"/>
				<path class="st1" d="M438.7,118.8h20.9v6.2h-13.4v7.4h11.4v5.7h-11.4v8.8h13.4v6.2h-20.9V118.8z"/>
			</g>
		</g>
		<g>
			<path class="st1" d="M470.7,25.1l-68.8-0.2L358,24.8l0,0l-238.7-1.4c-3,0-5.4,2.4-5.4,5.3l-0.1,19.9c0,2.8,2.1,5.1,4.9,5.4
				c7.2,0.7,13.2,2.3,17.3,3.6l-0.1,14.9c-6-2.1-14.6-4.3-24.1-4.4C92.9,68,90,77.7,90,83.4c-0.1,11.2,11,15.2,22.7,19.3
				c18.3,6.6,31.3,12.9,31.2,34.7c-0.1,9.4-3.6,26-27.1,31c-2.5,0.5-4.2,2.7-4.2,5.2l-0.1,22.3c0,1.4,0.6,2.8,1.6,3.8
				c0.6,0.6,1.2,1,1.9,1.3c0.6,0.2,1.2,0.3,1.8,0.3l107.4,0.4l0,0l115.2,0.2l74,0.2l55.5,0.2c7,0,17.5-4.6,17.5-17.4l0.8-142.3
				C488.1,35.6,483.5,25.1,470.7,25.1z M476.6,184.8c0,5.8-4.3,6.7-6.8,6.7l-68.7-0.2L316,191l-90.9-0.2l0,0L123,190.5l0.1-12.8
				c19.6-5.7,31.2-20.5,31.3-40.3c0.2-31.1-22.9-39.4-38.3-44.9c-10.6-3.8-15.6-5.9-15.6-9.2c0-1.3,0-4.7,11-4.7
				c10.4,0.1,20.8,3.4,27.1,6.5c1.7,0.8,3.6,0.7,5.2-0.3c1.6-1,2.5-2.7,2.5-4.5l0.2-26.7c0-2.2-1.3-4.2-3.4-5
				c-3.5-1.4-10.2-3.6-18.8-4.9l0.1-9.7l104.7,0.4l97.4,0.9l76.6,0.2l67.5,0.2c5.8,0,6.7,4.3,6.7,6.8L476.6,184.8z"/>
			<path class="st1" d="M96.8,155c21.4,0.1,24.6-10.3,24.7-16.5c0.1-10.9-8.4-14.1-19-18.2c-3.4-1.3-7.2-2.8-11.6-4.7
				c-15-6.5-21.7-16.1-21.6-31c0.1-16.6,9.2-26.8,27-30.1c2.5-0.5,4.3-2.7,4.4-5.2l0.1-20.7c0-2.9-2.4-5.4-5.3-5.4H76.4l0,0
				l-29.5,0.1c-12.8,0-17.5,10.4-17.5,17.4L28.8,183c0,12.8,10.4,17.5,17.4,17.5l29.3,0.7v-0.3l18.2,0.2c1.4,0,2.8-0.5,3.8-1.5
				s1.6-2.4,1.6-3.8l0.1-20.9c0-2.9-2.2-5.2-5.1-5.4c-8.6-0.5-16.9-2.2-24.8-5.1l0,0l0.1-15.4C77.2,152.1,86.8,155,96.8,155z
				 M62,173c8.4,3.5,17.3,5.8,26.6,6.8l-0.1,10.5L61.6,190l-0.2,0.1l-15.1-0.3c-2.5-0.1-6.8-1-6.8-6.8l0.4-142.3
				c0.1-2.5,1-6.8,6.8-6.8l30-0.3l0,0l13.2,0.2l-0.1,11.1c-20.1,5.3-31.2,19.2-31.3,39.6c-0.1,19.2,9.1,32.6,28.1,40.8
				c4.6,2,8.5,3.5,12,4.9c10.7,4.1,12.2,5.1,12.1,8.1c0,3.9-4.7,5.9-13.9,5.9c-11.6-0.1-22.9-4.8-30.4-8.4c-1.7-0.8-3.6-0.7-5.2,0.3
				c-1.6,1-2.5,2.7-2.5,4.5l0,27.4C58.7,170.2,60,172.2,62,173z"/>
		</g>
	</g>
</g>
</svg>
