<svg xmlns="http://www.w3.org/2000/svg" width="58" height="48" viewBox="0 0 58 48">
  <g>
    <path d="M43.2,36 L9.6,36 C8.94,36 8.4,35.46 8.4,34.8 C8.4,34.14 8.94,33.6 9.6,33.6 L43.2,33.6 C43.86,33.6 44.4,33.06 44.4,32.4 C44.4,31.74 43.86,31.2 43.2,31.2 L8.55,31.2 C6.44,31.2 4.6,29.85 3.97,27.83 L0.22,15.83 C-0.23,14.38 0.03,12.78 0.93,11.56 C1.83,10.33 3.28,9.6 4.8,9.6 L45.88,9.6 C46.48,9.6 47,9.15 47.07,8.55 L47.88,2.1 C48.03,0.9 49.05,0 50.26,0 L56.4,0 C57.06,0 57.6,0.54 57.6,1.2 C57.6,1.86 57.06,2.4 56.4,2.4 L50.26,2.4 L49.45,8.84 C49.23,10.64 47.69,12 45.88,12 L4.8,12 C4.04,12 3.32,12.37 2.86,12.98 C2.41,13.59 2.28,14.39 2.51,15.12 L6.26,27.12 C6.57,28.13 7.49,28.8 8.55,28.8 L43.2,28.8 C45.18,28.8 46.8,30.42 46.8,32.4 C46.8,34.38 45.18,36 43.2,36 Z"/>
    <path d="M45.6 27.6C45.56 27.6 45.51 27.6 45.47 27.59 44.81 27.52 44.34 26.92 44.41 26.26L45.61 15.46C45.68 14.8 46.29 14.33 46.94 14.4 47.6 14.47 48.07 15.07 48 15.73L46.8 26.53C46.72 27.15 46.2 27.6 45.6 27.6zM14.4 48C11.75 48 9.6 45.85 9.6 43.2 9.6 40.55 11.75 38.4 14.4 38.4 17.05 38.4 19.2 40.55 19.2 43.2 19.2 45.85 17.05 48 14.4 48zM14.4 40.8C13.08 40.8 12 41.88 12 43.2 12 44.52 13.08 45.6 14.4 45.6 15.72 45.6 16.8 44.52 16.8 43.2 16.8 41.88 15.72 40.8 14.4 40.8zM40.8 48C38.15 48 36 45.85 36 43.2 36 40.55 38.15 38.4 40.8 38.4 43.45 38.4 45.6 40.55 45.6 43.2 45.6 45.85 43.45 48 40.8 48zM40.8 40.8C39.48 40.8 38.4 41.88 38.4 43.2 38.4 44.52 39.48 45.6 40.8 45.6 42.12 45.6 43.2 44.52 43.2 43.2 43.2 41.88 42.12 40.8 40.8 40.8z"/>
  </g>
</svg>
